%YAML 1.1
%TAG !u! tag:unity3d.com,2011:
--- !u!1045 &1
EditorBuildSettings:
  m_ObjectHideFlags: 0
  serializedVersion: 2
  m_Scenes:
  - enabled: 1
    path: Assets/Scene/0-MenuV2.unity
    guid: ee69980d337067c479113d74837ed565
  - enabled: 1
    path: Assets/Scene/1-MiseEnRouteV2.unity
    guid: 157900381ee54054bb824cbfb71f8329
  - enabled: 1
    path: Assets/Scene/2-Level1.unity
    guid: 0176afd65386f5240afe8b573f88ad19
  - enabled: 1
    path: Assets/Scene/3-Level2.unity
    guid: c8005a9ee957f44479430fafc2a496e0
  - enabled: 1
    path: Assets/Scene/4-Level3.unity
    guid: a9b948c9c4a01f24ea9794dc349bb535
  - enabled: 1
    path: Assets/Scene/5-Level4.unity
    guid: 00d682c93fb7d0042afed96a286b3901
  - enabled: 1
    path: Assets/Scene/6-Level5.unity
    guid: 79e1a5246bf0b8f47af3937fabbd9489
  - enabled: 1
    path: Assets/Scene/7-Level6.unity
    guid: bf71f47d4115f9e45989727a75ebb3bd
