<?xml version="1.0" encoding="UTF-8" standalone="no" ?>
<COLLADA xmlns="http://www.collada.org/2005/11/COLLADASchema" version="1.4.1">
    <asset>
        <contributor>
            <authoring_tool>SketchUp 17.2.2555</authoring_tool>
        </contributor>
        <created>2017-10-03T20:53:26Z</created>
        <modified>2017-10-03T20:53:26Z</modified>
        <unit meter="0.0254" name="inch" />
        <up_axis>Z_UP</up_axis>
    </asset>
    <library_cameras>
        <camera id="ID1" name="skp_camera_Last_Saved_SketchUp_View">
            <optics>
                <technique_common>
                    <perspective>
                        <yfov>35</yfov>
                        <aspect_ratio>0</aspect_ratio>
                        <znear>1</znear>
                        <zfar>1000</zfar>
                    </perspective>
                </technique_common>
            </optics>
        </camera>
    </library_cameras>
    <library_visual_scenes>
        <visual_scene id="ID2">
            <node name="SketchUp">
                <instance_geometry url="#ID3">
                    <bind_material>
                        <technique_common>
                            <instance_material symbol="Material2" target="#ID4">
                                <bind_vertex_input semantic="UVSET0" input_semantic="TEXCOORD" input_set="0" />
                            </instance_material>
                        </technique_common>
                    </bind_material>
                </instance_geometry>
                <node name="skp_camera_Last_Saved_SketchUp_View">
                    <matrix>0.8670121 0.203372 -0.4548954 -183.1469 -0.4982871 0.3538643 -0.7915112 -299.8289 -2.775558e-17 0.9129183 0.4081422 138.252 0 0 0 1</matrix>
                    <instance_camera url="#ID1" />
                </node>
            </node>
        </visual_scene>
    </library_visual_scenes>
    <library_geometries>
        <geometry id="ID3">
            <mesh>
                <source id="ID6">
                    <float_array id="ID9" count="2172">6.69696 43.19883 0.125232 5.958954 37.8352 -1.707446 6.142257 37.8352 0.1148592 6.497103 43.19883 -1.861644 6.497103 43.19883 -1.861644 6.69696 43.19883 0.125232 5.958954 37.8352 -1.707446 6.142257 37.8352 0.1148592 6.44043 43.19883 2.103574 5.906975 37.8352 1.929336 6.44043 43.19883 2.103574 5.906975 37.8352 1.929336 7.130469 48.6414 0.1333386 6.917675 48.6414 -1.982152 6.917675 48.6414 -1.982152 7.130469 48.6414 0.1333386 5.369558 37.8352 -3.413391 5.85448 43.19883 -3.721652 5.85448 43.19883 -3.721652 5.369558 37.8352 -3.413391 5.468345 32.56971 0.1022571 1.260648 -0.003403732 -0.361219 1.299426 -0.003403732 0.02429906 5.305154 32.56971 -1.520109 5.305154 32.56971 -1.520109 5.468345 32.56971 0.1022571 1.260648 -0.003403732 -0.361219 1.299426 -0.003403732 0.02429906 5.744995 43.19883 3.93856 5.269142 37.8352 3.612333 5.744995 43.19883 3.93856 5.269142 37.8352 3.612333 6.857333 48.6414 2.239743 6.857333 48.6414 2.239743 5.258878 32.56971 1.717655 1.249651 -0.003403732 0.4081612 5.258878 32.56971 1.717655 1.249651 -0.003403732 0.4081612 7.441232 54.14342 0.1391498 7.219164 54.14342 -2.068539 7.219164 54.14342 -2.068539 7.441232 54.14342 0.1391498 6.233453 48.6414 -3.962563 6.233453 48.6414 -3.962563 4.414236 37.8352 -4.886719 4.812883 43.19883 -5.328035 4.812883 43.19883 -5.328035 4.414236 37.8352 -4.886719 1.135958 -0.003403732 -0.7221206 4.780425 32.56971 -3.038883 4.780425 32.56971 -3.038883 1.135958 -0.003403732 -0.7221206 1.299426 -0.003403732 0.02429906 1.260648 -0.003403732 -0.361219 0 1.181102 0 0 1.181102 0 1.260648 -0.003403732 -0.361219 1.299426 -0.003403732 0.02429906 4.658049 43.19883 5.50514 4.272227 37.8352 5.049154 4.658049 43.19883 5.50514 4.272227 37.8352 5.049154 6.116882 48.6414 4.193512 6.116882 48.6414 4.193512 4.691026 32.56971 3.215997 1.114715 -0.003403732 0.7642078 4.691026 32.56971 3.215997 1.114715 -0.003403732 0.7642078 7.156192 54.14342 2.337356 7.156192 54.14342 2.337356 1.249651 -0.003403732 0.4081612 1.249651 -0.003403732 0.4081612 7.628136 59.68519 0.1426449 7.40049 59.68519 -2.120495 7.40049 59.68519 -2.120495 7.628136 59.68519 0.1426449 6.505122 54.14342 -4.135261 6.505122 54.14342 -4.135261 5.124432 48.6414 -5.672931 5.124432 48.6414 -5.672931 3.443296 43.19883 -6.571322 3.158091 37.8352 -6.027025 3.443296 43.19883 -6.571322 3.158091 37.8352 -6.027025 0.9338547 -0.003403732 -1.033811 3.929918 32.56971 -4.350561 3.929918 32.56971 -4.350561 0.9338547 -0.003403732 -1.033811 1.135958 -0.003403732 -0.7221206 1.135958 -0.003403732 -0.7221206 3.253664 43.19883 6.696554 2.984166 37.8352 6.141884 3.253664 43.19883 6.696554 2.984166 37.8352 6.141884 4.959575 48.6414 5.8615 4.959575 48.6414 5.8615 3.803489 32.56971 4.495175 0.9038118 -0.003403732 1.068175 3.803489 32.56971 4.495175 0.9038118 -0.003403732 1.068175 6.38347 54.14342 4.376275 6.38347 54.14342 4.376275 1.114715 -0.003403732 0.7642078 1.114715 -0.003403732 0.7642078 7.335937 59.68519 2.396064 7.335937 59.68519 2.396064 7.690511 65.24687 0.1438113 7.461004 65.24687 -2.137835 7.461004 65.24687 -2.137835 7.690511 65.24687 0.1438113 6.668513 59.68519 -4.239127 6.668513 59.68519 -4.239127 5.347767 54.14342 -5.920171 5.347767 54.14342 -5.920171 3.666189 48.6414 -6.996699 3.666189 48.6414 -6.996699 1.839055 43.19883 -7.366784 1.686727 37.8352 -6.7566 1.839055 43.19883 -7.366784 1.686727 37.8352 -6.7566 2.811594 32.56971 -5.365756 0.6681106 -0.003403732 -1.275049 2.811594 32.56971 -5.365756 0.6681106 -0.003403732 -1.275049 0.9338547 -0.003403732 -1.033811 0.9338547 -0.003403732 -1.033811 1.627547 43.19883 7.431609 1.492739 37.8352 6.816055 1.627547 43.19883 7.431609 1.492739 37.8352 6.816055 3.464281 48.6414 7.130037 3.464281 48.6414 7.130037 2.656751 32.56971 5.468014 0.6313158 -0.003403732 1.299348 2.656751 32.56971 5.468014 0.6313158 -0.003403732 1.299348 5.175725 54.14342 6.116958 5.175725 54.14342 6.116958 0.9038118 -0.003403732 1.068175 0.9038118 -0.003403732 1.068175 6.543806 59.68519 4.486195 6.543806 59.68519 4.486195 7.395923 65.24687 2.415657 7.395923 65.24687 2.415657 7.628136 70.80856 0.1426449 7.40049 70.80856 -2.120495 7.40049 70.80856 -2.120495 7.628136 70.80856 0.1426449 6.723042 65.24687 -4.273791 6.723042 65.24687 -4.273791 5.482088 59.68519 -6.06887 5.482088 59.68519 -6.06887 3.82597 54.14342 -7.301631 3.82597 54.14342 -7.301631 1.958101 48.6414 -7.843653 1.958101 48.6414 -7.843653 0.1094844 43.19883 -7.660212 0.1004159 37.8352 -7.025723 0.1094844 43.19883 -7.660212 0.1004159 37.8352 -7.025723 1.501664 32.56971 -6.015284 0.356836 -0.003403732 -1.429394 1.501664 32.56971 -6.015284 0.356836 -0.003403732 -1.429394 0.6681106 -0.003403732 -1.275049 0.6681106 -0.003403732 -1.275049 -0.1004159 37.8352 7.025723 -0.1094844 43.19883 7.660212 -0.1004159 37.8352 7.025723 -0.1094844 43.19883 7.660212 1.732902 48.6414 7.912674 1.732902 48.6414 7.912674 1.328959 32.56971 6.068216 0.3157966 -0.003403732 1.441972 1.328959 32.56971 6.068216 0.3157966 -0.003403732 1.441972 3.615262 54.14342 7.440781 3.615262 54.14342 7.440781 0.6313158 -0.003403732 1.299348 0.6313158 -0.003403732 1.299348 5.305725 59.68519 6.2706 5.305725 59.68519 6.2706 6.597315 65.24687 4.522879 6.597315 65.24687 4.522879 7.335937 70.80856 2.396064 7.335937 70.80856 2.396064 7.441232 76.35033 0.1391498 7.219164 76.35033 -2.068539 7.219164 76.35033 -2.068539 7.441232 76.35033 0.1391498 6.668513 70.80856 -4.239127 6.668513 70.80856 -4.239127 5.526915 65.24687 -6.118495 5.526915 65.24687 -6.118495 3.922068 59.68519 -7.485029 3.922068 59.68519 -7.485029 2.043439 54.14342 -8.185498 2.043439 54.14342 -8.185498 0.1165716 48.6414 -8.156075 0.1165716 48.6414 -8.156075 -1.492739 37.8352 -6.816055 -1.627547 43.19883 -7.431609 -1.492739 37.8352 -6.816055 -1.627547 43.19883 -7.431609 0.08939856 32.56971 -6.25488 0.02124351 -0.003403732 -1.486328 0.08939856 32.56971 -6.25488 0.02124351 -0.003403732 -1.486328 0.356836 -0.003403732 -1.429394 0.356836 -0.003403732 -1.429394 -1.686727 37.8352 6.7566 -1.839055 43.19883 7.366784 -1.686727 37.8352 6.7566 -1.839055 43.19883 7.366784 -0.1165716 48.6414 8.156075 -0.1165716 48.6414 8.156075 -0.08939856 32.56971 6.25488 -0.02124351 -0.003403732 1.486328 -0.02124351 -0.003403732 1.486328 -0.08939856 32.56971 6.25488 1.808426 54.14342 8.257527 1.808426 54.14342 8.257527 0.3157966 -0.003403732 1.441972 0.3157966 -0.003403732 1.441972 3.706068 59.68519 7.627674 3.706068 59.68519 7.627674 5.34911 65.24687 6.321875 5.34911 65.24687 6.321875 6.543806 70.80856 4.486195 6.543806 70.80856 4.486195 7.156192 76.35033 2.337356 7.156192 76.35033 2.337356 7.130469 81.85235 0.1333386 6.917675 81.85235 -1.982152 6.917675 81.85235 -1.982152 7.130469 81.85235 0.1333386 6.505122 76.35033 -4.135261 6.505122 76.35033 -4.135261 5.482088 70.80856 -6.06887 5.482088 70.80856 -6.06887 3.954139 65.24687 -7.546234 3.954139 65.24687 -7.546234 2.094765 59.68519 -8.391095 2.094765 59.68519 -8.391095 0.1216521 54.14342 -8.511536 0.1216521 54.14342 -8.511536 -1.732902 48.6414 -7.912674 -1.732902 48.6414 -7.912674 -2.984166 37.8352 -6.141884 -3.253664 43.19883 -6.696554 -2.984166 37.8352 -6.141884 -3.253664 43.19883 -6.696554 -1.328959 32.56971 -6.068216 -0.3157966 -0.003403732 -1.441972 -0.3157966 -0.003403732 -1.441972 -1.328959 32.56971 -6.068216 0.02124351 -0.003403732 -1.486328 0.02124351 -0.003403732 -1.486328 -3.158091 37.8352 6.027025 -3.443296 43.19883 6.571322 -3.158091 37.8352 6.027025 -3.443296 43.19883 6.571322 -1.958101 48.6414 7.843653 -1.958101 48.6414 7.843653 -1.501664 32.56971 6.015284 -0.356836 -0.003403732 1.429394 -0.356836 -0.003403732 1.429394 -1.501664 32.56971 6.015284 -0.1216521 54.14342 8.511536 -0.1216521 54.14342 8.511536 -0.02124351 -0.003403732 1.486328 -0.02124351 -0.003403732 1.486328 1.853848 59.68519 8.464934 1.853848 59.68519 8.464934 3.736373 65.24687 7.690045 3.736373 65.24687 7.690045 5.305725 70.80856 6.2706 5.305725 70.80856 6.2706 6.38347 76.35033 4.376275 6.38347 76.35033 4.376275 6.857333 81.85235 2.239743 6.857333 81.85235 2.239743 6.69696 87.29492 0.125232 6.497103 87.29492 -1.861644 6.497103 87.29492 -1.861644 6.69696 87.29492 0.125232 6.233453 81.85235 -3.962563 6.233453 81.85235 -3.962563 5.347767 76.35033 -5.920171 5.347767 76.35033 -5.920171 3.922068 70.80856 -7.485029 3.922068 70.80856 -7.485029 2.111894 65.24687 -8.45971 2.111894 65.24687 -8.45971 0.1247076 59.68519 -8.725323 0.1247076 59.68519 -8.725323 -1.808426 54.14342 -8.257527 -1.808426 54.14342 -8.257527 -3.464281 48.6414 -7.130037 -3.464281 48.6414 -7.130037 -4.272227 37.8352 -5.049154 -4.658049 43.19883 -5.50514 -4.272227 37.8352 -5.049154 -4.658049 43.19883 -5.50514 -2.656751 32.56971 -5.468014 -0.6313158 -0.003403732 -1.299348 -0.6313158 -0.003403732 -1.299348 -2.656751 32.56971 -5.468014 -0.3157966 -0.003403732 -1.441972 -0.3157966 -0.003403732 -1.441972 -4.414236 37.8352 4.886719 -4.812883 43.19883 5.328035 -4.414236 37.8352 4.886719 -4.812883 43.19883 5.328035 -3.666189 48.6414 6.996699 -3.666189 48.6414 6.996699 -2.811594 32.56971 5.365756 -0.6681106 -0.003403732 1.275049 -0.6681106 -0.003403732 1.275049 -2.811594 32.56971 5.365756 -2.043439 54.14342 8.185498 -2.043439 54.14342 8.185498 -0.356836 -0.003403732 1.429394 -0.356836 -0.003403732 1.429394 -0.1247076 59.68519 8.725323 -0.1247076 59.68519 8.725323 1.869008 65.24687 8.534152 1.869008 65.24687 8.534152 3.706068 70.80856 7.627674 3.706068 70.80856 7.627674 5.175725 76.35033 6.116958 5.175725 76.35033 6.116958 6.116882 81.85235 4.193512 6.116882 81.85235 4.193512 6.44043 87.29492 2.103574 6.44043 87.29492 2.103574 6.142257 92.65855 0.1148592 5.958954 92.65855 -1.707446 5.958954 92.65855 -1.707446 6.142257 92.65855 0.1148592 5.85448 87.29492 -3.721652 5.85448 87.29492 -3.721652 5.124432 81.85235 -5.672931 5.124432 81.85235 -5.672931 3.82597 76.35033 -7.301631 3.82597 76.35033 -7.301631 2.094765 70.80856 -8.391095 2.094765 70.80856 -8.391095 0.1257274 65.24687 -8.79667 0.1257274 65.24687 -8.79667 -1.853848 59.68519 -8.464934 -1.853848 59.68519 -8.464934 -3.615262 54.14342 -7.440781 -3.615262 54.14342 -7.440781 -4.959575 48.6414 -5.8615 -4.959575 48.6414 -5.8615 -5.269142 37.8352 -3.612333 -5.744995 43.19883 -3.93856 -5.744995 43.19883 -3.93856 -5.269142 37.8352 -3.612333 -3.803489 32.56971 -4.495175 -0.9038118 -0.003403732 -1.068175 -0.9038118 -0.003403732 -1.068175 -3.803489 32.56971 -4.495175 -0.6313158 -0.003403732 -1.299348 -0.6313158 -0.003403732 -1.299348 -5.85448 43.19883 3.721652 -5.369558 37.8352 3.413391 -5.85448 43.19883 3.721652 -5.369558 37.8352 3.413391 -5.124432 48.6414 5.672931 -5.124432 48.6414 5.672931 -3.929918 32.56971 4.350561 -0.9338547 -0.003403732 1.033811 -0.9338547 -0.003403732 1.033811 -3.929918 32.56971 4.350561 -3.82597 54.14342 7.301631 -3.82597 54.14342 7.301631 -0.6681106 -0.003403732 1.275049 -0.6681106 -0.003403732 1.275049 -2.094765 59.68519 8.391095 -2.094765 59.68519 8.391095 -0.1257274 65.24687 8.79667 -0.1257274 65.24687 8.79667 1.853848 70.80856 8.464934 1.853848 70.80856 8.464934 3.615262 76.35033 7.440781 3.615262 76.35033 7.440781 4.959575 81.85235 5.8615 4.959575 81.85235 5.8615 5.744995 87.29492 3.93856 5.744995 87.29492 3.93856 5.906975 92.65855 1.929336 5.906975 92.65855 1.929336 5.468345 97.92404 0.1022571 5.305154 97.92404 -1.520109 0 140.65 0 0 140.65 0 5.468345 97.92404 0.1022571 5.305154 97.92404 -1.520109 5.369558 92.65855 -3.413391 5.369558 92.65855 -3.413391 4.812883 87.29492 -5.328035 4.812883 87.29492 -5.328035 3.666189 81.85235 -6.996699 3.666189 81.85235 -6.996699 2.043439 76.35033 -8.185498 2.043439 76.35033 -8.185498 0.1247076 70.80856 -8.725323 0.1247076 70.80856 -8.725323 -1.869008 65.24687 -8.534152 -1.869008 65.24687 -8.534152 -3.706068 59.68519 -7.627674 -3.706068 59.68519 -7.627674 -5.175725 54.14342 -6.116958 -5.175725 54.14342 -6.116958 -6.116882 48.6414 -4.193512 -6.116882 48.6414 -4.193512 -5.906975 37.8352 -1.929336 -6.44043 43.19883 -2.103574 -6.44043 43.19883 -2.103574 -5.906975 37.8352 -1.929336 -1.114715 -0.003403732 -0.7642078 -4.691026 32.56971 -3.215997 -4.691026 32.56971 -3.215997 -1.114715 -0.003403732 -0.7642078 -0.9038118 -0.003403732 -1.068175 -0.9038118 -0.003403732 -1.068175 -6.497103 43.19883 1.861644 -5.958954 37.8352 1.707446 -6.497103 43.19883 1.861644 -5.958954 37.8352 1.707446 -6.233453 48.6414 3.962563 -6.233453 48.6414 3.962563 -4.780425 32.56971 3.038883 -1.135958 -0.003403732 0.7221206 -4.780425 32.56971 3.038883 -1.135958 -0.003403732 0.7221206 -5.347767 54.14342 5.920171 -5.347767 54.14342 5.920171 -0.9338547 -0.003403732 1.033811 -0.9338547 -0.003403732 1.033811 -3.922068 59.68519 7.485029 -3.922068 59.68519 7.485029 -2.111894 65.24687 8.45971 -2.111894 65.24687 8.45971 -0.1247076 70.80856 8.725323 -0.1247076 70.80856 8.725323 1.808426 76.35033 8.257527 1.808426 76.35033 8.257527 3.464281 81.85235 7.130037 3.464281 81.85235 7.130037 4.658049 87.29492 5.50514 4.658049 87.29492 5.50514 5.269142 92.65855 3.612333 5.269142 92.65855 3.612333 5.258878 97.92404 1.717655 5.258878 97.92404 1.717655 4.780425 97.92404 -3.038883 4.780425 97.92404 -3.038883 4.414236 92.65855 -4.886719 4.414236 92.65855 -4.886719 3.443296 87.29492 -6.571322 3.443296 87.29492 -6.571322 1.958101 81.85235 -7.843653 1.958101 81.85235 -7.843653 0.1216521 76.35033 -8.511536 0.1216521 76.35033 -8.511536 -1.853848 70.80856 -8.464934 -1.853848 70.80856 -8.464934 -3.736373 65.24687 -7.690045 -3.736373 65.24687 -7.690045 -5.305725 59.68519 -6.2706 -5.305725 59.68519 -6.2706 -6.38347 54.14342 -4.376275 -6.38347 54.14342 -4.376275 -6.857333 48.6414 -2.239743 -6.857333 48.6414 -2.239743 -6.142257 37.8352 -0.1148592 -6.69696 43.19883 -0.125232 -6.69696 43.19883 -0.125232 -6.142257 37.8352 -0.1148592 -1.249651 -0.003403732 -0.4081612 -5.258878 32.56971 -1.717655 -5.258878 32.56971 -1.717655 -1.249651 -0.003403732 -0.4081612 -1.114715 -0.003403732 -0.7642078 -1.114715 -0.003403732 -0.7642078 -6.917675 48.6414 1.982152 -6.917675 48.6414 1.982152 -5.305154 32.56971 1.520109 -1.260648 -0.003403732 0.361219 -5.305154 32.56971 1.520109 -1.260648 -0.003403732 0.361219 -6.505122 54.14342 4.135261 -6.505122 54.14342 4.135261 -1.135958 -0.003403732 0.7221206 -1.135958 -0.003403732 0.7221206 -5.482088 59.68519 6.06887 -5.482088 59.68519 6.06887 -3.954139 65.24687 7.546234 -3.954139 65.24687 7.546234 -2.094765 70.80856 8.391095 -2.094765 70.80856 8.391095 -0.1216521 76.35033 8.511536 -0.1216521 76.35033 8.511536 1.732902 81.85235 7.912674 1.732902 81.85235 7.912674 3.253664 87.29492 6.696554 3.253664 87.29492 6.696554 4.272227 92.65855 5.049154 4.272227 92.65855 5.049154 4.691026 97.92404 3.215997 4.691026 97.92404 3.215997 3.929918 97.92404 -4.350561 3.929918 97.92404 -4.350561 3.158091 92.65855 -6.027025 3.158091 92.65855 -6.027025 1.839055 87.29492 -7.366784 1.839055 87.29492 -7.366784 0.1165716 81.85235 -8.156075 0.1165716 81.85235 -8.156075 -1.808426 76.35033 -8.257527 -1.808426 76.35033 -8.257527 -3.706068 70.80856 -7.627674 -3.706068 70.80856 -7.627674 -5.34911 65.24687 -6.321875 -5.34911 65.24687 -6.321875 -6.543806 59.68519 -4.486195 -6.543806 59.68519 -4.486195 -7.156192 54.14342 -2.337356 -7.156192 54.14342 -2.337356 -7.130469 48.6414 -0.1333386 -7.130469 48.6414 -0.1333386 -1.299426 -0.003403732 -0.02429906 -5.468345 32.56971 -0.1022571 -5.468345 32.56971 -0.1022571 -1.299426 -0.003403732 -0.02429906 -1.249651 -0.003403732 -0.4081612 -1.249651 -0.003403732 -0.4081612 -7.219164 54.14342 2.068539 -7.219164 54.14342 2.068539 -1.260648 -0.003403732 0.361219 -1.260648 -0.003403732 0.361219 -6.668513 59.68519 4.239127 -6.668513 59.68519 4.239127 -5.526915 65.24687 6.118495 -5.526915 65.24687 6.118495 -3.922068 70.80856 7.485029 -3.922068 70.80856 7.485029 -2.043439 76.35033 8.185498 -2.043439 76.35033 8.185498 -0.1165716 81.85235 8.156075 -0.1165716 81.85235 8.156075 1.627547 87.29492 7.431609 1.627547 87.29492 7.431609 2.984166 92.65855 6.141884 2.984166 92.65855 6.141884 3.803489 97.92404 4.495175 3.803489 97.92404 4.495175 2.811594 97.92404 -5.365756 2.811594 97.92404 -5.365756 1.686727 92.65855 -6.7566 1.686727 92.65855 -6.7566 0.1094844 87.29492 -7.660212 0.1094844 87.29492 -7.660212 -1.732902 81.85235 -7.912674 -1.732902 81.85235 -7.912674 -3.615262 76.35033 -7.440781 -3.615262 76.35033 -7.440781 -5.305725 70.80856 -6.2706 -5.305725 70.80856 -6.2706 -6.597315 65.24687 -4.522879 -6.597315 65.24687 -4.522879 -7.335937 59.68519 -2.396064 -7.335937 59.68519 -2.396064 -7.441232 54.14342 -0.1391498 -7.441232 54.14342 -0.1391498 -1.299426 -0.003403732 -0.02429906 -1.299426 -0.003403732 -0.02429906 -7.40049 59.68519 2.120495 -7.40049 59.68519 2.120495 -6.723042 65.24687 4.273791 -6.723042 65.24687 4.273791 -5.482088 70.80856 6.06887 -5.482088 70.80856 6.06887 -3.82597 76.35033 7.301631 -3.82597 76.35033 7.301631 -1.958101 81.85235 7.843653 -1.958101 81.85235 7.843653 -0.1094844 87.29492 7.660212 -0.1094844 87.29492 7.660212 1.492739 92.65855 6.816055 1.492739 92.65855 6.816055 2.656751 97.92404 5.468014 2.656751 97.92404 5.468014 1.501664 97.92404 -6.015284 1.501664 97.92404 -6.015284 0.1004159 92.65855 -7.025723 0.1004159 92.65855 -7.025723 -1.627547 87.29492 -7.431609 -1.627547 87.29492 -7.431609 -3.464281 81.85235 -7.130037 -3.464281 81.85235 -7.130037 -5.175725 76.35033 -6.116958 -5.175725 76.35033 -6.116958 -6.543806 70.80856 -4.486195 -6.543806 70.80856 -4.486195 -7.395923 65.24687 -2.415657 -7.395923 65.24687 -2.415657 -7.628136 59.68519 -0.1426449 -7.628136 59.68519 -0.1426449 -7.461004 65.24687 2.137835 -7.461004 65.24687 2.137835 -6.668513 70.80856 4.239127 -6.668513 70.80856 4.239127 -5.347767 76.35033 5.920171 -5.347767 76.35033 5.920171 -3.666189 81.85235 6.996699 -3.666189 81.85235 6.996699 -1.839055 87.29492 7.366784 -1.839055 87.29492 7.366784 -0.1004159 92.65855 7.025723 -0.1004159 92.65855 7.025723 1.328959 97.92404 6.068216 1.328959 97.92404 6.068216 0.08939856 97.92404 -6.25488 0.08939856 97.92404 -6.25488 -1.492739 92.65855 -6.816055 -1.492739 92.65855 -6.816055 -3.253664 87.29492 -6.696554 -3.253664 87.29492 -6.696554 -4.959575 81.85235 -5.8615 -4.959575 81.85235 -5.8615 -6.38347 76.35033 -4.376275 -6.38347 76.35033 -4.376275 -7.335937 70.80856 -2.396064 -7.335937 70.80856 -2.396064 -7.690511 65.24687 -0.1438113 -7.690511 65.24687 -0.1438113 -7.40049 70.80856 2.120495 -7.40049 70.80856 2.120495 -6.505122 76.35033 4.135261 -6.505122 76.35033 4.135261 -5.124432 81.85235 5.672931 -5.124432 81.85235 5.672931 -3.443296 87.29492 6.571322 -3.443296 87.29492 6.571322 -1.686727 92.65855 6.7566 -1.686727 92.65855 6.7566 -0.08939856 97.92404 6.25488 -0.08939856 97.92404 6.25488 -1.328959 97.92404 -6.068216 -1.328959 97.92404 -6.068216 -2.984166 92.65855 -6.141884 -2.984166 92.65855 -6.141884 -4.658049 87.29492 -5.50514 -4.658049 87.29492 -5.50514 -6.116882 81.85235 -4.193512 -6.116882 81.85235 -4.193512 -7.156192 76.35033 -2.337356 -7.156192 76.35033 -2.337356 -7.628136 70.80856 -0.1426449 -7.628136 70.80856 -0.1426449 -7.219164 76.35033 2.068539 -7.219164 76.35033 2.068539 -6.233453 81.85235 3.962563 -6.233453 81.85235 3.962563 -4.812883 87.29492 5.328035 -4.812883 87.29492 5.328035 -3.158091 92.65855 6.027025 -3.158091 92.65855 6.027025 -1.501664 97.92404 6.015284 -1.501664 97.92404 6.015284 -2.656751 97.92404 -5.468014 -2.656751 97.92404 -5.468014 -4.272227 92.65855 -5.049154 -4.272227 92.65855 -5.049154 -5.744995 87.29492 -3.93856 -5.744995 87.29492 -3.93856 -6.857333 81.85235 -2.239743 -6.857333 81.85235 -2.239743 -7.441232 76.35033 -0.1391498 -7.441232 76.35033 -0.1391498 -6.917675 81.85235 1.982152 -6.917675 81.85235 1.982152 -5.85448 87.29492 3.721652 -5.85448 87.29492 3.721652 -4.414236 92.65855 4.886719 -4.414236 92.65855 4.886719 -2.811594 97.92404 5.365756 -2.811594 97.92404 5.365756 -3.803489 97.92404 -4.495175 -3.803489 97.92404 -4.495175 -5.269142 92.65855 -3.612333 -5.269142 92.65855 -3.612333 -6.44043 87.29492 -2.103574 -6.44043 87.29492 -2.103574 -7.130469 81.85235 -0.1333386 -7.130469 81.85235 -0.1333386 -6.497103 87.29492 1.861644 -6.497103 87.29492 1.861644 -5.369558 92.65855 3.413391 -5.369558 92.65855 3.413391 -3.929918 97.92404 4.350561 -3.929918 97.92404 4.350561 -4.691026 97.92404 -3.215997 -4.691026 97.92404 -3.215997 -5.906975 92.65855 -1.929336 -5.906975 92.65855 -1.929336 -6.69696 87.29492 -0.125232 -6.69696 87.29492 -0.125232 -5.958954 92.65855 1.707446 -5.958954 92.65855 1.707446 -4.780425 97.92404 3.038883 -4.780425 97.92404 3.038883 -5.258878 97.92404 -1.717655 -5.258878 97.92404 -1.717655 -6.142257 92.65855 -0.1148592 -6.142257 92.65855 -0.1148592 -5.305154 97.92404 1.520109 -5.305154 97.92404 1.520109 -5.468345 97.92404 -0.1022571 -5.468345 97.92404 -0.1022571</float_array>
                    <technique_common>
                        <accessor count="724" source="#ID9" stride="3">
                            <param name="X" type="float" />
                            <param name="Y" type="float" />
                            <param name="Z" type="float" />
                        </accessor>
                    </technique_common>
                </source>
                <source id="ID7">
                    <float_array id="ID10" count="2172">-0.9957411 0.09107889 -0.01429232 -0.9701042 0.115635 0.2133693 -0.993282 0.1148374 -0.01425682 -0.9725389 0.09171473 0.2139079 0.9725389 -0.09171473 -0.2139079 0.9957411 -0.09107889 0.01429232 0.9701042 -0.115635 -0.2133693 0.993282 -0.1148374 0.01425682 -0.9658733 0.0918938 -0.2421659 -0.9634461 0.1158596 -0.2415538 0.9658733 -0.0918938 0.2421659 0.9634461 -0.1158596 0.2415538 -0.9975924 0.06785478 -0.01431904 -0.974372 0.0683303 0.2143134 0.974372 -0.0683303 -0.2143134 0.9975924 -0.06785478 0.01431904 -0.8923897 0.1181354 0.435528 -0.8947254 0.09370843 0.4366751 0.8947254 -0.09370843 -0.4366751 0.8923897 -0.1181354 -0.435528 -0.9918042 0.1269716 -0.01423171 -0.9687781 0.1278479 0.2124238 -0.9918048 0.1269716 -0.01419221 -0.9686529 0.1278526 0.2129914 0.9686529 -0.1278526 -0.2129914 0.9918042 -0.1269716 0.01423171 0.9687781 -0.1278479 -0.2124238 0.9918048 -0.1269716 0.01419221 -0.880981 0.09403909 -0.4637124 -0.8786653 0.1185501 -0.4624858 0.880981 -0.09403909 0.4637124 0.8786653 -0.1185501 0.4624858 -0.9677008 0.06846424 -0.2426268 0.9677008 -0.06846424 0.2426268 -0.9620025 0.1281007 -0.2411253 -0.9621622 0.1280948 -0.2404903 0.9620025 -0.1281007 0.2411253 0.9621622 -0.1280948 0.2404903 -0.9988831 0.04502262 -0.01433767 -0.97565 0.04533898 0.2145961 0.97565 -0.04533898 -0.2145961 0.9988831 -0.04502262 0.01433767 -0.8964846 0.06982159 0.437539 0.8964846 -0.06982159 -0.437539 -0.7561999 0.1219105 0.6428838 -0.7583046 0.09671972 0.6446855 0.7583046 -0.09671972 -0.6446855 0.7561999 -0.1219105 -0.6428838 -0.8915219 0.1305985 0.4337426 -0.8910322 0.1306149 0.434743 0.8910322 -0.1306149 -0.434743 0.8915219 -0.1305985 -0.4337426 0.6735389 0.7390867 0.009811553 0.6548324 0.7415031 -0.1461772 4.623081e-15 1 -2.910544e-15 -4.623081e-15 -1 2.910544e-15 -0.6548324 -0.7415031 0.1461772 -0.6735389 -0.7390867 -0.009811553 -0.7369649 0.0971381 -0.6689147 -0.7349023 0.1224348 -0.6670294 0.7369649 -0.0971381 0.6689147 0.7349023 -0.1224348 0.6670294 -0.8827251 0.07006896 -0.4646362 0.8827251 -0.07006896 0.4646362 -0.8773251 0.131073 -0.4616498 -0.8778707 0.1310552 -0.4606166 0.8773251 -0.131073 0.4616498 0.8778707 -0.1310552 0.4606166 -0.968975 0.04542809 -0.2429481 0.968975 -0.04542809 0.2429481 0.649505 0.7421774 0.1652753 -0.649505 -0.7421774 -0.1652753 -0.999645 0.02244763 -0.01434867 -0.9764045 0.02260561 0.2147631 0.9764045 -0.02260561 -0.2147631 0.999645 -0.02244763 0.01434867 -0.8977112 0.04633123 0.4381415 0.8977112 -0.04633123 -0.4381415 -0.7598904 0.07207475 0.6460431 0.7598904 -0.07207475 -0.6460431 -0.5606585 0.1000854 0.8219762 -0.5589966 0.1261274 0.819521 0.5606585 -0.1000854 -0.8219762 0.5589966 -0.1261274 -0.819521 -0.7559538 0.1347617 0.6406038 -0.7550224 0.1347872 0.6416958 0.7550224 -0.1347872 -0.6416958 0.7559538 -0.1347617 -0.6406038 0.5938562 0.7488606 -0.2941811 -0.5938562 -0.7488606 0.2941811 -0.53181 0.1004845 -0.8408811 -0.5302215 0.1266273 -0.83835 0.53181 -0.1004845 0.8408811 0.5302215 -0.1266273 0.83835 -0.7385191 0.07238787 -0.6703354 0.7385191 -0.07238787 0.6703354 -0.7337545 0.135367 -0.6657928 -0.7347328 0.135341 -0.6647183 0.7337545 -0.135367 0.6657928 0.7347328 -0.135341 0.6647183 -0.8839413 0.04649584 -0.4652804 0.8839413 -0.04649584 0.4652804 0.5833473 0.7500496 0.3116594 -0.5833473 -0.7500496 -0.3116594 -0.9697273 0.02265011 -0.2431378 0.9697273 -0.02265011 0.2431378 -0.999897 5.06246e-17 -0.0143523 -0.976654 5.063492e-17 0.2148183 0.976654 -5.063492e-17 -0.2148183 0.999897 -5.06246e-17 0.0143523 -0.8984356 0.02310115 0.4384972 0.8984356 -0.02310115 -0.4384972 -0.7609967 0.04783075 0.6469902 0.7609967 -0.04783075 -0.6469902 -0.5619114 0.07459414 0.8238273 0.5619114 -0.07459414 -0.8238273 -0.3073403 0.1028365 0.9460267 -0.306381 0.1295725 0.9430491 0.3073403 -0.1028365 -0.9460267 0.306381 -0.1295725 -0.9430491 -0.5581057 0.1394511 0.8179678 -0.5592608 0.1394285 0.8171824 0.5581057 -0.1394511 -0.8179678 0.5592608 -0.1394285 -0.8171824 0.4925785 0.7593726 -0.4251114 -0.4925785 -0.7593726 0.4251114 -0.2726226 0.1030846 -0.9565827 -0.2717677 0.1298832 -0.9535579 0.2726226 -0.1030846 0.9565827 0.2717677 -0.1298832 0.9535579 -0.5330075 0.07489294 -0.8427895 0.5330075 -0.07489294 0.8427895 -0.5293744 0.1400042 -0.8367566 -0.5305251 0.1399829 -0.836031 0.5293744 -0.1400042 0.8367566 0.5305251 -0.1399829 0.836031 -0.7396033 0.04803917 -0.6713264 0.7396033 -0.04803917 0.6713264 0.477291 0.7607785 0.4397833 -0.477291 -0.7607785 -0.4397833 -0.8846595 0.02318336 -0.4656609 0.8846595 -0.02318336 0.4656609 -0.969976 4.841202e-17 -0.2432005 0.969976 -4.841202e-17 0.2432005 -0.999645 -0.02244763 -0.01434867 -0.9764045 -0.02260561 0.2147631 0.9764045 0.02260561 -0.2147631 0.999645 0.02244763 0.01434867 -0.8986751 5.289588e-17 0.4386148 0.8986751 -5.289588e-17 -0.4386148 -0.76165 0.02385011 0.6475495 0.76165 -0.02385011 -0.6475495 -0.5627856 0.04950793 0.825119 0.5627856 -0.04950793 -0.825119 -0.3080638 0.07665431 0.9482725 0.3080638 -0.07665431 -0.9482725 -0.01849372 0.1039912 0.9944063 -0.01843476 0.131018 0.9912086 0.01849372 -0.1039912 -0.9944063 0.01843476 -0.131018 -0.9912086 -0.3058844 0.143264 0.941228 -0.3067442 0.143255 0.9409495 0.3058844 -0.143264 -0.941228 0.3067442 -0.143255 -0.9409495 0.3555877 0.7703245 -0.5292991 -0.3555877 -0.7703245 0.5292991 0.01843476 0.131018 -0.9912086 0.01849372 0.1039912 -0.9944063 -0.01843476 -0.131018 0.9912086 -0.01849372 -0.1039912 0.9944063 -0.2732673 0.07684017 -0.9588642 0.2732673 -0.07684017 0.9588642 -0.2713266 0.1436079 -0.9517135 -0.2721081 0.1436007 -0.9514915 0.2713266 -0.1436079 0.9517135 0.2721081 -0.1436007 0.9514915 -0.5338432 0.04970688 -0.8441212 0.5338432 -0.04970688 0.8441212 0.3363406 0.7715703 0.5399576 -0.3363406 -0.7715703 -0.5399576 -0.7402437 0.02395422 -0.6719118 0.7402437 -0.02395422 0.6719118 -0.884897 4.844704e-17 -0.4657867 0.884897 -4.844704e-17 0.4657867 -0.9697273 -0.02265011 -0.2431378 0.9697273 0.02265011 0.2431378 -0.9988831 -0.04502262 -0.01433767 -0.97565 -0.04533898 0.2145961 0.97565 0.04533898 -0.2145961 0.9988831 0.04502262 0.01433767 -0.8984356 -0.02310115 0.4384972 0.8984356 0.02310115 -0.4384972 -0.7618661 4.960913e-17 0.6477345 0.7618661 -4.960913e-17 -0.6477345 -0.5633021 0.02468796 0.8258821 0.5633021 -0.02468796 -0.8258821 -0.3085689 0.05087979 0.9498402 0.3085689 -0.05087979 -0.9498402 -0.0185382 0.07751924 0.9968185 0.0185382 -0.07751924 -0.9968185 0.2717677 0.1298832 0.9535579 0.2726226 0.1030846 0.9565827 -0.2717677 -0.1298832 -0.9535579 -0.2726226 -0.1030846 -0.9565827 -0.01840469 0.1448645 0.9892803 -0.01846244 0.1448645 0.9892792 0.01840469 -0.1448645 -0.9892803 0.01846244 -0.1448645 -0.9892792 0.1911809 0.7786973 -0.597562 -0.1911809 -0.7786973 0.597562 0.306381 0.1295725 -0.9430491 0.3073403 0.1028365 -0.9460267 -0.306381 -0.1295725 0.9430491 -0.3073403 -0.1028365 0.9460267 0.0185382 0.07751924 -0.9968185 -0.0185382 -0.07751924 0.9968185 0.01840469 0.1448645 -0.9892803 0.01846244 0.1448645 -0.9892792 -0.01846244 -0.1448645 0.9892792 -0.01840469 -0.1448645 0.9892803 -0.2737174 0.05100357 -0.9604569 0.2737174 -0.05100357 0.9604569 0.1692895 0.7794283 0.6031854 -0.1692895 -0.7794283 -0.6031854 -0.534337 0.02478736 -0.844908 0.534337 -0.02478736 0.844908 -0.7404555 5.240453e-17 -0.6721054 0.7404555 -5.240453e-17 0.6721054 -0.8846595 -0.02318336 -0.4656609 0.8846595 0.02318336 0.4656609 -0.968975 -0.04542809 -0.2429481 0.968975 0.04542809 0.2429481 -0.9975924 -0.06785478 -0.01431904 -0.974372 -0.0683303 0.2143134 0.974372 0.0683303 -0.2143134 0.9975924 0.06785478 0.01431904 -0.8977112 -0.04633123 0.4381415 0.8977112 0.04633123 -0.4381415 -0.76165 -0.02385011 0.6475495 0.76165 0.02385011 -0.6475495 -0.563473 4.855958e-17 0.8261345 0.563473 -4.855958e-17 -0.8261345 -0.3088673 0.0253734 0.9507666 0.3088673 -0.0253734 -0.9507666 -0.01856925 0.05145585 0.9985026 0.01856925 -0.05145585 -0.9985026 0.2732673 0.07684017 0.9588642 -0.2732673 -0.07684017 -0.9588642 0.5302215 0.1266273 0.83835 0.53181 0.1004845 0.8408811 -0.5302215 -0.1266273 -0.83835 -0.53181 -0.1004845 -0.8408811 0.2713266 0.1436079 0.9517135 0.2721081 0.1436007 0.9514915 -0.2721081 -0.1436007 -0.9514915 -0.2713266 -0.1436079 -0.9517135 0.01141121 0.7820655 -0.6230917 -0.01141121 -0.7820655 0.6230917 0.5589966 0.1261274 -0.819521 0.5606585 0.1000854 -0.8219762 -0.5589966 -0.1261274 0.819521 -0.5606585 -0.1000854 0.8219762 0.3080638 0.07665431 -0.9482725 -0.3080638 -0.07665431 0.9482725 0.3058844 0.143264 -0.941228 0.3067442 0.143255 -0.9409495 -0.3067442 -0.143255 0.9409495 -0.3058844 -0.143264 0.941228 0.01856925 0.05145585 -0.9985026 -0.01856925 -0.05145585 0.9985026 -0.01141121 0.7820655 0.6230917 0.01141121 -0.7820655 -0.6230917 -0.2739834 0.02543526 -0.961398 0.2739834 -0.02543526 0.961398 -0.5345003 5.191728e-17 -0.8451683 0.5345003 -5.191728e-17 0.8451683 -0.7402437 -0.02395422 -0.6719118 0.7402437 0.02395422 0.6719118 -0.8839413 -0.04649584 -0.4652804 0.8839413 0.04649584 0.4652804 -0.9677008 -0.06846424 -0.2426268 0.9677008 0.06846424 0.2426268 -0.9957411 -0.09107889 -0.01429232 -0.9725389 -0.09171473 0.2139079 0.9725389 0.09171473 -0.2139079 0.9957411 0.09107889 0.01429232 -0.8964846 -0.06982159 0.437539 0.8964846 0.06982159 -0.437539 -0.7609967 -0.04783075 0.6469902 0.7609967 0.04783075 -0.6469902 -0.5633021 -0.02468796 0.8258821 0.5633021 0.02468796 -0.8258821 -0.3089661 5.476529e-17 0.9510731 0.3089661 -5.476529e-17 -0.9510731 -0.0185876 0.02566126 0.9994979 0.0185876 -0.02566126 -0.9994979 0.2737174 0.05100357 0.9604569 -0.2737174 -0.05100357 -0.9604569 0.5330075 0.07489294 0.8427895 -0.5330075 -0.07489294 -0.8427895 0.7349023 0.1224348 0.6670294 0.7369649 0.0971381 0.6689147 -0.7349023 -0.1224348 -0.6670294 -0.7369649 -0.0971381 -0.6689147 0.5293744 0.1400042 0.8367566 0.5305251 0.1399829 0.836031 -0.5305251 -0.1399829 -0.836031 -0.5293744 -0.1400042 -0.8367566 -0.1692895 0.7794283 -0.6031854 0.1692895 -0.7794283 0.6031854 0.7561999 0.1219105 -0.6428838 0.7583046 0.09671972 -0.6446855 -0.7561999 -0.1219105 0.6428838 -0.7583046 -0.09671972 0.6446855 0.5619114 0.07459414 -0.8238273 -0.5619114 -0.07459414 0.8238273 0.5581057 0.1394511 -0.8179678 0.5592608 0.1394285 -0.8171824 -0.5592608 -0.1394285 0.8171824 -0.5581057 -0.1394511 0.8179678 0.3085689 0.05087979 -0.9498402 -0.3085689 -0.05087979 0.9498402 -0.1911809 0.7786973 0.597562 0.1911809 -0.7786973 -0.597562 0.0185876 0.02566126 -0.9994979 -0.0185876 -0.02566126 0.9994979 -0.2740714 5.253595e-17 -0.9617094 0.2740714 -5.253595e-17 0.9617094 -0.534337 -0.02478736 -0.844908 0.534337 0.02478736 0.844908 -0.7396033 -0.04803917 -0.6713264 0.7396033 0.04803917 0.6713264 -0.8827251 -0.07006896 -0.4646362 0.8827251 0.07006896 0.4646362 -0.9658733 -0.0918938 -0.2421659 0.9658733 0.0918938 0.2421659 -0.993282 -0.1148374 -0.01425682 -0.9701042 -0.115635 0.2133693 0.9701042 0.115635 -0.2133693 0.993282 0.1148374 0.01425682 -0.8947254 -0.09370843 0.4366751 0.8947254 0.09370843 -0.4366751 -0.7598904 -0.07207475 0.6460431 0.7598904 0.07207475 -0.6460431 -0.5627856 -0.04950793 0.825119 0.5627856 0.04950793 -0.825119 -0.3088673 -0.0253734 0.9507666 0.3088673 0.0253734 -0.9507666 -0.01859367 5.703118e-17 0.9998271 0.01859367 -5.703118e-17 -0.9998271 0.2739834 0.02543526 0.961398 -0.2739834 -0.02543526 -0.961398 0.5338432 0.04970688 0.8441212 -0.5338432 -0.04970688 -0.8441212 0.7385191 0.07238787 0.6703354 -0.7385191 -0.07238787 -0.6703354 0.8786653 0.1185501 0.4624858 0.880981 0.09403909 0.4637124 -0.880981 -0.09403909 -0.4637124 -0.8786653 -0.1185501 -0.4624858 0.7337545 0.135367 0.6657928 0.7347328 0.135341 0.6647183 -0.7347328 -0.135341 -0.6647183 -0.7337545 -0.135367 -0.6657928 -0.3363406 0.7715703 -0.5399576 0.3363406 -0.7715703 0.5399576 0.8947254 0.09370843 -0.4366751 0.8923897 0.1181354 -0.435528 -0.8947254 -0.09370843 0.4366751 -0.8923897 -0.1181354 0.435528 0.7598904 0.07207475 -0.6460431 -0.7598904 -0.07207475 0.6460431 0.7550224 0.1347872 -0.6416958 0.7559538 0.1347617 -0.6406038 -0.7559538 -0.1347617 0.6406038 -0.7550224 -0.1347872 0.6416958 0.5627856 0.04950793 -0.825119 -0.5627856 -0.04950793 0.825119 -0.3555877 0.7703245 0.5292991 0.3555877 -0.7703245 -0.5292991 0.3088673 0.0253734 -0.9507666 -0.3088673 -0.0253734 0.9507666 0.01859367 5.591292e-17 -0.9998271 -0.01859367 -5.591292e-17 0.9998271 -0.2739834 -0.02543526 -0.961398 0.2739834 0.02543526 0.961398 -0.5338432 -0.04970688 -0.8441212 0.5338432 0.04970688 0.8441212 -0.7385191 -0.07238787 -0.6703354 0.7385191 0.07238787 0.6703354 -0.880981 -0.09403909 -0.4637124 0.880981 0.09403909 0.4637124 -0.9634461 -0.1158596 -0.2415538 0.9634461 0.1158596 0.2415538 -0.9918042 -0.1269716 -0.01423171 -0.9686529 -0.1278526 0.2129914 1.585504e-13 -1 -5.880556e-14 -1.585504e-13 1 5.880556e-14 0.9918042 0.1269716 0.01423171 0.9686529 0.1278526 -0.2129914 -0.8923897 -0.1181354 0.435528 0.8923897 0.1181354 -0.435528 -0.7583046 -0.09671972 0.6446855 0.7583046 0.09671972 -0.6446855 -0.5619114 -0.07459414 0.8238273 0.5619114 0.07459414 -0.8238273 -0.3085689 -0.05087979 0.9498402 0.3085689 0.05087979 -0.9498402 -0.0185876 -0.02566126 0.9994979 0.0185876 0.02566126 -0.9994979 0.2740714 5.756599e-17 0.9617094 -0.2740714 -5.756599e-17 -0.9617094 0.534337 0.02478736 0.844908 -0.534337 -0.02478736 -0.844908 0.7396033 0.04803917 0.6713264 -0.7396033 -0.04803917 -0.6713264 0.8827251 0.07006896 0.4646362 -0.8827251 -0.07006896 -0.4646362 0.9634461 0.1158596 0.2415538 0.9658733 0.0918938 0.2421659 -0.9658733 -0.0918938 -0.2421659 -0.9634461 -0.1158596 -0.2415538 0.8778707 0.1310552 0.4606166 0.8773251 0.131073 0.4616498 -0.8773251 -0.131073 -0.4616498 -0.8778707 -0.1310552 -0.4606166 -0.477291 0.7607785 -0.4397833 0.477291 -0.7607785 0.4397833 0.9725389 0.09171473 -0.2139079 0.9701042 0.115635 -0.2133693 -0.9725389 -0.09171473 0.2139079 -0.9701042 -0.115635 0.2133693 0.8964846 0.06982159 -0.437539 -0.8964846 -0.06982159 0.437539 0.8910322 0.1306149 -0.434743 0.8915219 0.1305985 -0.4337426 -0.8910322 -0.1306149 0.434743 -0.8915219 -0.1305985 0.4337426 0.7609967 0.04783075 -0.6469902 -0.7609967 -0.04783075 0.6469902 -0.4925785 0.7593726 0.4251114 0.4925785 -0.7593726 -0.4251114 0.5633021 0.02468796 -0.8258821 -0.5633021 -0.02468796 0.8258821 0.3089661 5.420646e-17 -0.9510731 -0.3089661 -5.420646e-17 0.9510731 0.0185876 -0.02566126 -0.9994979 -0.0185876 0.02566126 0.9994979 -0.2737174 -0.05100357 -0.9604569 0.2737174 0.05100357 0.9604569 -0.5330075 -0.07489294 -0.8427895 0.5330075 0.07489294 0.8427895 -0.7369649 -0.0971381 -0.6689147 0.7369649 0.0971381 0.6689147 -0.8786653 -0.1185501 -0.4624858 0.8786653 0.1185501 0.4624858 -0.9620025 -0.1281007 -0.2411253 0.9620025 0.1281007 0.2411253 -0.8910322 -0.1306149 0.434743 0.8910322 0.1306149 -0.434743 -0.7561999 -0.1219105 0.6428838 0.7561999 0.1219105 -0.6428838 -0.5606585 -0.1000854 0.8219762 0.5606585 0.1000854 -0.8219762 -0.3080638 -0.07665431 0.9482725 0.3080638 0.07665431 -0.9482725 -0.01856925 -0.05145585 0.9985026 0.01856925 0.05145585 -0.9985026 0.2739834 -0.02543526 0.961398 -0.2739834 0.02543526 -0.961398 0.5345003 5.247553e-17 0.8451683 -0.5345003 -5.247553e-17 -0.8451683 0.7402437 0.02395422 0.6719118 -0.7402437 -0.02395422 -0.6719118 0.8839413 0.04649584 0.4652804 -0.8839413 -0.04649584 -0.4652804 0.9677008 0.06846424 0.2426268 -0.9677008 -0.06846424 -0.2426268 0.993282 0.1148374 0.01425682 0.9957411 0.09107889 0.01429232 -0.9957411 -0.09107889 -0.01429232 -0.993282 -0.1148374 -0.01425682 0.9621622 0.1280948 0.2404903 0.9620025 0.1281007 0.2411253 -0.9620025 -0.1281007 -0.2411253 -0.9621622 -0.1280948 -0.2404903 -0.5833473 0.7500496 -0.3116594 0.5833473 -0.7500496 0.3116594 0.974372 0.0683303 -0.2143134 -0.974372 -0.0683303 0.2143134 0.9686529 0.1278526 -0.2129914 0.9687781 0.1278479 -0.2124238 -0.9686529 -0.1278526 0.2129914 -0.9687781 -0.1278479 0.2124238 0.8977112 0.04633123 -0.4381415 -0.8977112 -0.04633123 0.4381415 -0.5938562 0.7488606 0.2941811 0.5938562 -0.7488606 -0.2941811 0.76165 0.02385011 -0.6475495 -0.76165 -0.02385011 0.6475495 0.563473 5.246668e-17 -0.8261345 -0.563473 -5.246668e-17 0.8261345 0.3088673 -0.0253734 -0.9507666 -0.3088673 0.0253734 0.9507666 0.01856925 -0.05145585 -0.9985026 -0.01856925 0.05145585 0.9985026 -0.2732673 -0.07684017 -0.9588642 0.2732673 0.07684017 0.9588642 -0.53181 -0.1004845 -0.8408811 0.53181 0.1004845 0.8408811 -0.7349023 -0.1224348 -0.6670294 0.7349023 0.1224348 0.6670294 -0.8773251 -0.131073 -0.4616498 0.8773251 0.131073 0.4616498 -0.7550224 -0.1347872 0.6416958 0.7550224 0.1347872 -0.6416958 -0.5589966 -0.1261274 0.819521 0.5589966 0.1261274 -0.819521 -0.3073403 -0.1028365 0.9460267 0.3073403 0.1028365 -0.9460267 -0.0185382 -0.07751924 0.9968185 0.0185382 0.07751924 -0.9968185 0.2737174 -0.05100357 0.9604569 -0.2737174 0.05100357 -0.9604569 0.534337 -0.02478736 0.844908 -0.534337 0.02478736 -0.844908 0.7404555 4.51571e-17 0.6721054 -0.7404555 -4.51571e-17 -0.6721054 0.8846595 0.02318336 0.4656609 -0.8846595 -0.02318336 -0.4656609 0.968975 0.04542809 0.2429481 -0.968975 -0.04542809 -0.2429481 0.9975924 0.06785478 0.01431904 -0.9975924 -0.06785478 -0.01431904 0.9918048 0.1269716 0.01419221 0.9918042 0.1269716 0.01423171 -0.9918042 -0.1269716 -0.01423171 -0.9918048 -0.1269716 -0.01419221 -0.649505 0.7421774 -0.1652753 0.649505 -0.7421774 0.1652753 0.97565 0.04533898 -0.2145961 -0.97565 -0.04533898 0.2145961 -0.6548324 0.7415031 0.1461772 0.6548324 -0.7415031 -0.1461772 0.8984356 0.02310115 -0.4384972 -0.8984356 -0.02310115 0.4384972 0.7618661 5.406838e-17 -0.6477345 -0.7618661 -5.406838e-17 0.6477345 0.5633021 -0.02468796 -0.8258821 -0.5633021 0.02468796 0.8258821 0.3085689 -0.05087979 -0.9498402 -0.3085689 0.05087979 0.9498402 0.0185382 -0.07751924 -0.9968185 -0.0185382 0.07751924 0.9968185 -0.2726226 -0.1030846 -0.9565827 0.2726226 0.1030846 0.9565827 -0.5302215 -0.1266273 -0.83835 0.5302215 0.1266273 0.83835 -0.7337545 -0.135367 -0.6657928 0.7337545 0.135367 0.6657928 -0.5581057 -0.1394511 0.8179678 0.5581057 0.1394511 -0.8179678 -0.306381 -0.1295725 0.9430491 0.306381 0.1295725 -0.9430491 -0.01849372 -0.1039912 0.9944063 0.01849372 0.1039912 -0.9944063 0.2732673 -0.07684017 0.9588642 -0.2732673 0.07684017 -0.9588642 0.5338432 -0.04970688 0.8441212 -0.5338432 0.04970688 -0.8441212 0.7402437 -0.02395422 0.6719118 -0.7402437 0.02395422 -0.6719118 0.884897 4.789018e-17 0.4657867 -0.884897 -4.789018e-17 -0.4657867 0.9697273 0.02265011 0.2431378 -0.9697273 -0.02265011 -0.2431378 0.9988831 0.04502262 0.01433767 -0.9988831 -0.04502262 -0.01433767 -0.6735389 0.7390867 -0.009811553 0.6735389 -0.7390867 0.009811553 0.9764045 0.02260561 -0.2147631 -0.9764045 -0.02260561 0.2147631 0.8986751 5.400947e-17 -0.4386148 -0.8986751 -5.400947e-17 0.4386148 0.76165 -0.02385011 -0.6475495 -0.76165 0.02385011 0.6475495 0.5627856 -0.04950793 -0.825119 -0.5627856 0.04950793 0.825119 0.3080638 -0.07665431 -0.9482725 -0.3080638 0.07665431 0.9482725 0.01849372 -0.1039912 -0.9944063 -0.01849372 0.1039912 0.9944063 -0.2717677 -0.1298832 -0.9535579 0.2717677 0.1298832 0.9535579 -0.5293744 -0.1400042 -0.8367566 0.5293744 0.1400042 0.8367566 -0.3058844 -0.143264 0.941228 0.3058844 0.143264 -0.941228 -0.01843476 -0.131018 0.9912086 0.01843476 0.131018 -0.9912086 0.2726226 -0.1030846 0.9565827 -0.2726226 0.1030846 -0.9565827 0.5330075 -0.07489294 0.8427895 -0.5330075 0.07489294 -0.8427895 0.7396033 -0.04803917 0.6713264 -0.7396033 0.04803917 -0.6713264 0.8846595 -0.02318336 0.4656609 -0.8846595 0.02318336 -0.4656609 0.969976 5.00814e-17 0.2432005 -0.969976 -5.00814e-17 -0.2432005 0.999645 0.02244763 0.01434867 -0.999645 -0.02244763 -0.01434867 0.976654 5.063492e-17 -0.2148183 -0.976654 -5.063492e-17 0.2148183 0.8984356 -0.02310115 -0.4384972 -0.8984356 0.02310115 0.4384972 0.7609967 -0.04783075 -0.6469902 -0.7609967 0.04783075 0.6469902 0.5619114 -0.07459414 -0.8238273 -0.5619114 0.07459414 0.8238273 0.3073403 -0.1028365 -0.9460267 -0.3073403 0.1028365 0.9460267 0.01843476 -0.131018 -0.9912086 -0.01843476 0.131018 0.9912086 -0.2713266 -0.1436079 -0.9517135 0.2713266 0.1436079 0.9517135 -0.01840469 -0.1448645 0.9892803 0.01840469 0.1448645 -0.9892803 0.2717677 -0.1298832 0.9535579 -0.2717677 0.1298832 -0.9535579 0.53181 -0.1004845 0.8408811 -0.53181 0.1004845 -0.8408811 0.7385191 -0.07238787 0.6703354 -0.7385191 0.07238787 -0.6703354 0.8839413 -0.04649584 0.4652804 -0.8839413 0.04649584 -0.4652804 0.9697273 -0.02265011 0.2431378 -0.9697273 0.02265011 -0.2431378 0.999897 4.895566e-17 0.0143523 -0.999897 -4.895566e-17 -0.0143523 0.9764045 -0.02260561 -0.2147631 -0.9764045 0.02260561 0.2147631 0.8977112 -0.04633123 -0.4381415 -0.8977112 0.04633123 0.4381415 0.7598904 -0.07207475 -0.6460431 -0.7598904 0.07207475 0.6460431 0.5606585 -0.1000854 -0.8219762 -0.5606585 0.1000854 0.8219762 0.306381 -0.1295725 -0.9430491 -0.306381 0.1295725 0.9430491 0.01840469 -0.1448645 -0.9892803 -0.01840469 0.1448645 0.9892803 0.2713266 -0.1436079 0.9517135 -0.2713266 0.1436079 -0.9517135 0.5302215 -0.1266273 0.83835 -0.5302215 0.1266273 -0.83835 0.7369649 -0.0971381 0.6689147 -0.7369649 0.0971381 -0.6689147 0.8827251 -0.07006896 0.4646362 -0.8827251 0.07006896 -0.4646362 0.968975 -0.04542809 0.2429481 -0.968975 0.04542809 -0.2429481 0.999645 -0.02244763 0.01434867 -0.999645 0.02244763 -0.01434867 0.97565 -0.04533898 -0.2145961 -0.97565 0.04533898 0.2145961 0.8964846 -0.06982159 -0.437539 -0.8964846 0.06982159 0.437539 0.7583046 -0.09671972 -0.6446855 -0.7583046 0.09671972 0.6446855 0.5589966 -0.1261274 -0.819521 -0.5589966 0.1261274 0.819521 0.3058844 -0.143264 -0.941228 -0.3058844 0.143264 0.941228 0.5293744 -0.1400042 0.8367566 -0.5293744 0.1400042 -0.8367566 0.7349023 -0.1224348 0.6670294 -0.7349023 0.1224348 -0.6670294 0.880981 -0.09403909 0.4637124 -0.880981 0.09403909 -0.4637124 0.9677008 -0.06846424 0.2426268 -0.9677008 0.06846424 -0.2426268 0.9988831 -0.04502262 0.01433767 -0.9988831 0.04502262 -0.01433767 0.974372 -0.0683303 -0.2143134 -0.974372 0.0683303 0.2143134 0.8947254 -0.09370843 -0.4366751 -0.8947254 0.09370843 0.4366751 0.7561999 -0.1219105 -0.6428838 -0.7561999 0.1219105 0.6428838 0.5581057 -0.1394511 -0.8179678 -0.5581057 0.1394511 0.8179678 0.7337545 -0.135367 0.6657928 -0.7337545 0.135367 -0.6657928 0.8786653 -0.1185501 0.4624858 -0.8786653 0.1185501 -0.4624858 0.9658733 -0.0918938 0.2421659 -0.9658733 0.0918938 -0.2421659 0.9975924 -0.06785478 0.01431904 -0.9975924 0.06785478 -0.01431904 0.9725389 -0.09171473 -0.2139079 -0.9725389 0.09171473 0.2139079 0.8923897 -0.1181354 -0.435528 -0.8923897 0.1181354 0.435528 0.7550224 -0.1347872 -0.6416958 -0.7550224 0.1347872 0.6416958 0.8773251 -0.131073 0.4616498 -0.8773251 0.131073 -0.4616498 0.9634461 -0.1158596 0.2415538 -0.9634461 0.1158596 -0.2415538 0.9957411 -0.09107889 0.01429232 -0.9957411 0.09107889 -0.01429232 0.9701042 -0.115635 -0.2133693 -0.9701042 0.115635 0.2133693 0.8910322 -0.1306149 -0.434743 -0.8910322 0.1306149 0.434743 0.9620025 -0.1281007 0.2411253 -0.9620025 0.1281007 -0.2411253 0.993282 -0.1148374 0.01425682 -0.993282 0.1148374 -0.01425682 0.9686529 -0.1278526 -0.2129914 -0.9686529 0.1278526 0.2129914 0.9918042 -0.1269716 0.01423171 -0.9918042 0.1269716 -0.01423171</float_array>
                    <technique_common>
                        <accessor count="724" source="#ID10" stride="3">
                            <param name="X" type="float" />
                            <param name="Y" type="float" />
                            <param name="Z" type="float" />
                        </accessor>
                    </technique_common>
                </source>
                <vertices id="ID8">
                    <input semantic="POSITION" source="#ID6" />
                    <input semantic="NORMAL" source="#ID7" />
                </vertices>
                <triangles count="1344" material="Material2">
                    <input offset="0" semantic="VERTEX" source="#ID8" />
                    <p>0 1 2 1 0 3 4 5 6 7 6 5 8 2 9 2 8 0 5 10 7 11 7 10 12 3 0 3 12 13 14 15 4 5 4 15 3 16 1 16 3 17 18 4 19 6 19 4 20 21 22 21 20 23 23 20 2 23 2 1 6 7 24 7 25 24 24 25 26 27 26 25 28 9 29 9 28 8 10 30 11 31 11 30 32 0 8 0 32 12 15 33 5 10 5 33 34 22 35 22 34 20 20 34 9 20 9 2 7 11 25 11 36 25 25 36 27 37 27 36 38 13 12 13 38 39 40 41 14 15 14 41 13 17 3 17 13 42 43 14 18 4 18 14 17 44 16 44 17 45 46 18 47 19 47 18 23 48 21 48 23 49 49 23 1 49 1 16 19 6 50 6 24 50 50 24 51 26 51 24 52 53 54 55 56 57 58 29 59 29 58 28 30 60 31 61 31 60 62 8 28 8 62 32 33 63 10 30 10 63 64 35 65 35 64 34 34 64 29 34 29 9 11 31 36 31 66 36 36 66 37 67 37 66 68 12 32 12 68 38 41 69 15 33 15 69 70 52 54 55 57 71 72 39 38 39 72 73 74 75 40 41 40 75 39 42 13 42 39 76 77 40 43 14 43 40 42 45 17 45 42 78 79 43 46 18 46 43 44 80 81 80 44 45 46 47 82 83 82 47 49 84 48 84 49 85 85 49 16 85 16 44 47 19 86 19 50 86 86 50 87 51 87 50 54 53 88 89 56 55 90 59 91 59 90 58 60 92 61 93 61 92 94 28 58 28 94 62 63 95 30 60 30 95 96 65 97 65 96 64 64 96 59 64 59 29 31 61 66 61 98 66 66 98 67 99 67 98 100 32 62 32 100 68 69 101 33 63 33 101 102 70 54 55 71 103 104 38 68 38 104 72 75 105 41 69 41 105 106 73 72 73 106 107 108 109 74 75 74 109 73 76 39 76 73 110 111 74 77 40 77 74 76 78 42 78 76 112 113 77 79 43 79 77 45 114 80 114 45 78 79 46 115 82 115 46 81 116 117 116 81 80 82 83 118 119 118 83 84 120 121 120 84 85 120 85 81 81 85 44 47 86 83 83 86 122 86 87 122 123 122 87 54 88 124 125 89 55 126 91 127 91 126 90 92 128 93 129 93 128 130 58 90 58 130 94 95 131 60 92 60 131 132 97 133 97 132 96 96 132 91 96 91 59 61 93 98 93 134 98 98 134 99 135 99 134 136 62 94 62 136 100 101 137 63 95 63 137 138 102 54 55 103 139 140 68 100 68 140 104 105 141 69 101 69 141 142 72 104 72 142 106 109 143 75 105 75 143 144 107 106 107 144 145 146 147 108 109 108 147 107 110 73 110 107 148 149 108 111 74 111 108 110 112 76 112 110 150 151 111 113 77 113 111 78 152 114 152 78 112 113 79 153 115 153 79 80 154 116 154 80 114 115 82 155 118 155 82 117 156 157 156 117 116 118 119 158 159 158 119 121 160 161 160 121 120 160 120 117 117 120 81 83 122 119 119 122 162 122 123 162 163 162 123 54 124 164 165 125 55 126 166 167 166 126 127 129 128 168 169 168 128 170 90 126 90 170 130 131 171 92 128 92 171 172 133 173 133 172 132 132 172 127 132 127 91 93 129 134 129 174 134 134 174 135 175 135 174 176 94 130 94 176 136 137 177 95 131 95 177 178 138 54 55 139 179 180 100 136 100 180 140 141 181 101 137 101 181 182 104 140 104 182 142 143 183 105 141 105 183 184 106 142 106 184 144 147 185 109 143 109 185 186 145 144 145 186 187 188 189 146 147 146 189 145 148 107 148 145 190 191 146 149 108 149 146 148 150 110 150 148 192 193 149 151 111 151 149 112 194 152 194 112 150 151 113 195 153 195 113 114 196 154 196 114 152 153 115 197 155 197 115 116 198 156 198 116 154 155 118 199 158 199 118 200 156 201 156 200 157 159 202 158 203 158 202 161 204 205 204 161 157 157 161 117 117 161 160 162 163 119 119 163 159 159 163 206 207 206 163 54 164 208 209 165 55 167 210 211 210 167 166 168 169 212 213 212 169 170 167 214 167 170 126 128 171 169 215 169 171 127 216 166 216 127 217 217 127 172 217 172 173 175 174 218 174 129 218 218 129 219 168 219 129 220 130 170 130 220 176 177 221 131 171 131 221 222 178 54 55 179 223 224 136 176 136 224 180 181 225 137 177 137 225 226 140 180 140 226 182 183 227 141 181 141 227 228 142 182 142 228 184 185 229 143 183 143 229 230 144 184 144 230 186 189 231 147 185 147 231 232 187 186 187 232 233 234 235 188 189 188 235 187 190 145 190 187 236 237 188 191 146 191 188 190 192 148 192 190 238 239 191 193 149 193 191 150 240 194 240 150 192 193 151 241 195 241 151 152 242 196 242 152 194 195 153 243 197 243 153 154 244 198 244 154 196 197 155 245 199 245 155 201 198 246 198 201 156 158 203 199 247 199 203 248 201 249 201 248 200 202 250 203 251 203 250 252 157 200 157 252 253 157 253 205 157 205 204 206 207 159 207 254 159 254 255 159 202 159 255 54 208 256 257 209 55 211 258 259 258 211 210 212 213 260 261 260 213 214 211 262 211 214 167 169 215 213 263 213 215 166 264 210 264 166 265 265 166 216 265 216 217 218 219 266 219 168 266 266 168 267 212 267 168 220 214 268 214 220 170 171 221 215 269 215 221 270 222 54 55 223 271 272 176 220 176 272 224 225 273 177 221 177 273 274 180 224 180 274 226 227 275 181 225 181 275 276 182 226 182 276 228 229 277 183 227 183 277 278 184 228 184 278 230 231 279 185 229 185 279 280 186 230 186 280 232 235 281 189 231 189 281 282 233 232 233 282 283 284 285 234 235 234 285 233 236 187 236 233 286 287 234 237 188 237 234 236 238 190 238 236 288 289 237 239 191 239 237 240 238 290 238 240 192 193 241 239 291 239 241 194 292 242 292 194 240 241 195 293 243 293 195 196 294 244 294 196 242 243 197 295 245 295 197 246 244 296 244 246 198 199 247 245 297 245 247 249 246 298 246 249 201 203 251 247 299 247 251 300 249 301 249 300 248 250 302 251 303 251 302 304 200 248 200 304 305 200 305 252 252 305 253 254 306 255 255 306 202 306 307 202 250 202 307 54 256 308 309 257 55 259 310 311 310 259 258 260 261 312 313 312 261 262 259 314 259 262 211 213 263 261 315 261 263 210 316 258 316 210 317 317 210 264 317 264 265 266 267 318 267 212 318 318 212 319 260 319 212 268 262 320 262 268 214 215 269 263 321 263 269 270 54 322 323 55 271 272 268 324 268 272 220 221 273 269 325 269 273 326 224 272 224 326 274 275 327 225 273 225 327 276 274 328 274 276 226 227 277 275 329 275 277 330 228 276 228 330 278 279 331 229 277 229 331 332 230 278 230 332 280 281 333 231 279 231 333 334 232 280 232 334 282 285 335 235 281 235 335 336 283 282 283 336 337 338 339 284 285 284 339 283 286 233 286 283 340 341 284 287 234 287 284 286 288 236 288 286 342 343 287 289 237 289 287 290 288 344 288 290 238 239 291 289 345 289 291 292 290 346 290 292 240 241 293 291 347 291 293 242 348 294 348 242 292 293 243 349 295 349 243 296 294 350 294 296 244 245 297 295 351 295 297 298 296 352 296 298 246 247 299 297 353 297 299 301 298 354 298 301 249 251 303 299 355 299 303 301 356 300 356 301 357 358 303 359 302 359 303 360 248 300 248 360 361 248 361 304 304 361 305 306 362 307 307 362 250 362 363 250 302 250 363 54 308 364 365 309 55 366 310 367 310 366 311 313 368 312 369 312 368 314 311 370 311 314 259 261 315 313 371 313 315 258 372 310 372 258 373 373 258 316 373 316 317 318 319 374 319 260 374 374 260 375 312 375 260 320 314 376 314 320 262 263 321 315 377 315 321 322 54 378 379 55 323 324 320 380 320 324 268 269 325 321 381 321 325 326 324 382 324 326 272 273 327 325 383 325 327 328 326 384 326 328 274 275 329 327 385 327 329 330 328 386 328 330 276 277 331 329 387 329 331 388 278 330 278 388 332 333 389 279 331 279 389 390 280 332 280 390 334 335 391 281 333 281 391 392 282 334 282 392 336 339 393 285 335 285 393 394 337 336 337 394 395 395 394 396 397 398 399 399 398 338 339 338 398 337 340 283 340 337 400 401 338 341 284 341 338 340 342 286 342 340 402 403 341 343 287 343 341 344 342 404 342 344 288 289 345 343 405 343 345 346 344 406 344 346 290 291 347 345 407 345 347 348 346 408 346 348 292 293 349 347 409 347 349 350 348 410 348 350 294 295 351 349 411 349 351 352 350 412 350 352 296 297 353 351 413 351 353 354 352 414 352 354 298 299 355 353 415 353 355 354 357 301 357 354 416 417 355 358 303 358 355 357 418 356 418 357 419 420 358 421 359 421 358 360 422 361 422 360 423 423 360 300 423 300 356 359 302 424 302 363 424 424 363 425 362 425 363 54 364 426 427 365 55 428 367 429 367 428 366 368 430 369 431 369 430 432 311 366 311 432 370 371 433 313 368 313 433 434 373 435 373 434 372 372 434 367 372 367 310 312 369 375 369 436 375 375 436 374 437 374 436 376 370 438 370 376 314 315 377 371 439 371 377 378 54 440 441 55 379 380 376 442 376 380 320 321 381 377 443 377 381 382 380 444 380 382 324 325 383 381 445 381 383 446 326 382 326 446 384 385 447 327 383 327 447 386 384 448 384 386 328 329 387 385 449 385 387 388 386 450 386 388 330 331 389 387 451 387 389 452 332 388 332 452 390 391 453 333 389 333 453 454 334 390 334 454 392 393 455 335 391 335 455 456 336 392 336 456 394 394 456 396 397 457 398 398 457 339 393 339 457 395 400 337 400 395 458 458 395 396 397 399 459 459 399 401 338 401 399 400 402 340 402 400 460 461 401 403 341 403 401 404 402 462 402 404 342 343 405 403 463 403 405 406 404 464 404 406 344 345 407 405 465 405 407 408 406 466 406 408 346 347 409 407 467 407 409 348 468 410 468 348 408 409 349 469 411 469 349 412 410 470 410 412 350 351 413 411 471 411 413 414 412 472 412 414 352 353 415 413 473 413 415 414 416 354 416 414 474 475 415 417 355 417 415 416 419 357 419 416 476 477 417 420 358 420 417 419 478 418 478 419 479 480 420 481 421 481 420 423 482 422 482 423 483 483 423 356 483 356 418 421 359 484 359 424 484 484 424 485 425 485 424 54 426 486 487 427 55 479 429 478 429 479 428 430 480 431 481 431 480 488 366 428 366 488 432 433 489 368 430 368 489 490 435 491 435 490 434 434 490 429 434 429 367 369 431 436 431 492 436 436 492 437 493 437 492 494 370 432 370 494 438 439 495 371 433 371 495 440 54 496 497 55 441 442 438 498 438 442 376 377 443 439 499 439 443 444 442 500 442 444 380 381 445 443 501 443 445 502 382 444 382 502 446 447 503 383 445 383 503 504 384 446 384 504 448 449 505 385 447 385 505 450 448 506 448 450 386 387 451 449 507 449 451 452 450 508 450 452 388 389 453 451 509 451 453 510 390 452 390 510 454 455 511 391 453 391 511 512 392 454 392 512 456 456 512 396 397 513 457 457 513 393 455 393 513 458 460 400 460 458 514 514 458 396 397 459 515 515 459 461 401 461 459 462 460 516 460 462 402 403 463 461 517 461 463 464 462 518 462 464 404 405 465 463 519 463 465 466 464 520 464 466 406 407 467 465 521 465 467 408 522 468 522 408 466 467 409 523 469 523 409 410 524 470 524 410 468 469 411 525 471 525 411 472 470 526 470 472 412 413 473 471 527 471 473 472 474 414 474 472 528 529 473 475 415 475 473 474 476 416 476 474 530 531 475 477 417 477 475 476 479 419 479 476 532 533 477 480 420 480 477 483 534 482 534 483 535 535 483 418 535 418 478 481 421 536 421 484 536 536 484 537 485 537 484 54 486 538 539 487 55 532 428 479 428 532 488 489 533 430 480 430 533 535 491 534 491 535 490 490 535 478 490 478 429 431 481 492 481 536 492 492 536 493 537 493 536 540 432 488 432 540 494 495 541 433 489 433 541 496 54 542 543 55 497 544 438 494 438 544 498 499 545 439 495 439 545 500 498 546 498 500 442 443 501 499 547 499 501 548 444 500 444 548 502 503 549 445 501 445 549 550 446 502 446 550 504 505 551 447 503 447 551 552 448 504 448 552 506 507 553 449 505 449 553 508 506 554 506 508 450 451 509 507 555 507 509 510 508 556 508 510 452 453 511 509 557 509 511 558 454 510 454 558 512 512 558 396 397 559 513 513 559 455 511 455 559 560 514 396 514 560 516 514 516 460 461 517 515 517 561 515 397 515 561 518 516 562 516 518 462 463 519 517 563 517 519 520 518 564 518 520 464 465 521 519 565 519 521 466 566 522 566 466 520 521 467 567 523 567 467 468 568 524 568 468 522 523 469 569 525 569 469 470 570 526 570 470 524 525 471 571 527 571 471 526 528 472 528 526 572 573 527 529 473 529 527 528 530 474 530 528 574 575 529 531 475 531 529 530 532 476 532 530 576 577 531 533 477 533 531 54 538 578 579 539 55 576 488 532 488 576 540 541 577 489 533 489 577 542 54 578 579 55 543 580 494 540 494 580 544 545 581 495 541 495 581 582 498 544 498 582 546 547 583 499 545 499 583 584 500 546 500 584 548 549 585 501 547 501 585 586 502 548 502 586 550 551 587 503 549 503 587 588 504 550 504 588 552 553 589 505 551 505 589 590 506 552 506 590 554 555 591 507 553 507 591 556 554 592 554 556 508 509 557 555 593 555 557 558 594 396 594 558 556 556 558 510 511 559 557 557 559 595 397 595 559 596 560 396 560 596 562 560 562 516 517 563 561 563 597 561 397 561 597 564 562 598 562 564 518 519 565 563 599 563 565 520 600 566 600 520 564 565 521 601 567 601 521 522 602 568 602 522 566 567 523 603 569 603 523 524 604 570 604 524 568 569 525 605 571 605 525 570 572 526 572 570 606 607 571 573 527 573 571 572 574 528 574 572 608 609 573 575 529 575 573 574 576 530 576 574 610 611 575 577 531 577 575 610 540 576 540 610 580 581 611 541 577 541 611 612 544 580 544 612 582 583 613 545 581 545 613 614 546 582 546 614 584 585 615 547 583 547 615 616 548 584 548 616 586 587 617 549 585 549 617 618 550 586 550 618 588 589 619 551 587 551 619 620 552 588 552 620 590 591 621 553 589 553 621 622 554 590 554 622 592 593 623 555 591 555 623 594 624 396 624 594 592 592 594 556 557 595 593 593 595 625 397 625 595 626 596 396 596 626 598 596 598 562 563 599 597 599 627 597 397 597 627 564 628 600 628 564 598 599 565 629 601 629 565 566 630 602 630 566 600 601 567 631 603 631 567 568 632 604 632 568 602 603 569 633 605 633 569 604 606 570 606 604 634 635 605 607 571 607 605 606 608 572 608 606 636 637 607 609 573 609 607 608 610 574 610 608 638 639 609 611 575 611 609 638 580 610 580 638 612 613 639 581 611 581 639 640 582 612 582 640 614 615 641 583 613 583 641 642 584 614 584 642 616 617 643 585 615 585 643 644 586 616 586 644 618 619 645 587 617 587 645 646 588 618 588 646 620 621 647 589 619 589 647 648 590 620 590 648 622 623 649 591 621 591 649 650 592 622 592 650 624 624 650 396 397 651 625 625 651 593 623 593 651 598 652 628 652 598 396 396 598 626 627 599 397 397 599 653 629 653 599 600 654 630 654 600 628 629 601 655 631 655 601 602 656 632 656 602 630 631 603 657 633 657 603 632 634 604 634 632 658 659 633 635 605 635 633 634 636 606 636 634 660 661 635 637 607 637 635 636 638 608 638 636 662 663 637 639 609 639 637 662 612 638 612 662 640 641 663 613 639 613 663 664 614 640 614 664 642 643 665 615 641 615 665 666 616 642 616 666 644 645 667 617 643 617 667 668 618 644 618 668 646 647 669 619 645 619 669 670 620 646 620 670 648 649 671 621 647 621 671 672 622 648 622 672 650 650 672 396 397 673 651 651 673 623 649 623 673 628 674 654 674 628 396 396 628 652 653 629 397 397 629 675 655 675 629 630 676 656 676 630 654 655 631 677 657 677 631 656 658 632 658 656 678 679 657 659 633 659 657 658 660 634 660 658 680 681 659 661 635 661 659 660 662 636 662 660 682 683 661 663 637 663 661 682 640 662 640 682 664 665 683 641 663 641 683 684 642 664 642 684 666 667 685 643 665 643 685 686 644 666 644 686 668 669 687 645 667 645 687 688 646 668 646 688 670 671 689 647 669 647 689 690 648 670 648 690 396 648 396 672 673 397 649 397 691 649 671 649 691 654 692 676 692 654 396 396 654 674 675 655 397 397 655 693 677 693 655 676 678 656 678 676 694 695 677 679 657 679 677 678 680 658 680 678 696 697 679 681 659 681 679 680 682 660 682 680 698 699 681 683 661 683 681 698 664 682 664 698 684 685 699 665 683 665 699 700 666 684 666 700 686 687 701 667 685 667 701 702 668 686 668 702 688 689 703 669 687 669 703 704 670 688 670 704 690 690 704 396 397 705 691 691 705 671 689 671 705 692 694 676 694 692 706 706 692 396 397 693 707 707 693 695 677 695 693 694 696 678 696 694 708 709 695 697 679 697 695 696 698 680 698 696 710 711 697 699 681 699 697 710 684 698 684 710 700 701 711 685 699 685 711 712 686 700 686 712 702 703 713 687 701 687 713 714 688 702 688 714 704 704 714 396 397 715 705 705 715 689 703 689 715 706 708 694 708 706 716 716 706 396 397 707 717 717 707 709 695 709 707 708 710 696 710 708 718 719 709 711 697 711 709 718 700 710 700 718 712 713 719 701 711 701 719 720 702 712 702 720 714 714 720 396 397 721 715 715 721 703 713 703 721 716 718 708 718 716 722 722 716 396 397 717 723 723 717 719 709 719 717 722 712 718 712 722 720 720 722 396 397 723 721 721 723 713 719 713 723</p>
                </triangles>
            </mesh>
        </geometry>
    </library_geometries>
    <library_materials>
        <material id="ID4" name="Color_E02">
            <instance_effect url="#ID5" />
        </material>
    </library_materials>
    <library_effects>
        <effect id="ID5">
            <profile_COMMON>
                <technique sid="COMMON">
                    <lambert>
                        <diffuse>
                            <color>0.7686275 0.7686275 0.4588235 0.5098039</color>
                        </diffuse>
                        <transparent opaque="RGB_ZERO">
                            <color>0.4901961 0.4901961 0.4901961 0.4901961</color>
                        </transparent>
                        <transparency>
                            <float>1</float>
                        </transparency>
                    </lambert>
                </technique>
            </profile_COMMON>
        </effect>
    </library_effects>
    <scene>
        <instance_visual_scene url="#ID2" />
    </scene>
</COLLADA>
